-- Merging decision tree log ---
manifest
ADDED from /home/darice/development/flutter/.pub-cache/hosted/pub.dartlang.org/share-0.6.4+3/android/src/main/AndroidManifest.xml:1:1-3:12
INJECTED from /home/darice/development/flutter/.pub-cache/hosted/pub.dartlang.org/share-0.6.4+3/android/src/main/AndroidManifest.xml:1:1-3:12
INJECTED from /home/darice/development/flutter/.pub-cache/hosted/pub.dartlang.org/share-0.6.4+3/android/src/main/AndroidManifest.xml:1:1-3:12
	package
		ADDED from /home/darice/development/flutter/.pub-cache/hosted/pub.dartlang.org/share-0.6.4+3/android/src/main/AndroidManifest.xml:2:3-37
		INJECTED from /home/darice/development/flutter/.pub-cache/hosted/pub.dartlang.org/share-0.6.4+3/android/src/main/AndroidManifest.xml
		INJECTED from /home/darice/development/flutter/.pub-cache/hosted/pub.dartlang.org/share-0.6.4+3/android/src/main/AndroidManifest.xml
	xmlns:android
		ADDED from /home/darice/development/flutter/.pub-cache/hosted/pub.dartlang.org/share-0.6.4+3/android/src/main/AndroidManifest.xml:1:11-69
uses-sdk
INJECTED from /home/darice/development/flutter/.pub-cache/hosted/pub.dartlang.org/share-0.6.4+3/android/src/main/AndroidManifest.xml reason: use-sdk injection requested
INJECTED from /home/darice/development/flutter/.pub-cache/hosted/pub.dartlang.org/share-0.6.4+3/android/src/main/AndroidManifest.xml
INJECTED from /home/darice/development/flutter/.pub-cache/hosted/pub.dartlang.org/share-0.6.4+3/android/src/main/AndroidManifest.xml
	android:minSdkVersion
		INJECTED from /home/darice/development/flutter/.pub-cache/hosted/pub.dartlang.org/share-0.6.4+3/android/src/main/AndroidManifest.xml
		ADDED from /home/darice/development/flutter/.pub-cache/hosted/pub.dartlang.org/share-0.6.4+3/android/src/main/AndroidManifest.xml
		INJECTED from /home/darice/development/flutter/.pub-cache/hosted/pub.dartlang.org/share-0.6.4+3/android/src/main/AndroidManifest.xml
